    {
        "db": [
        "JonWiesman", "UnderdogCA",
        "TheLango", "Unsub",
        "JWK24", "Hoss",
        "pontamous21", "Java21",
        "chawell", "Chawell",
        "winterwren12", "Lily Whites",
        "cremebruleepoker", "cremebrulee",
        "eventhorizon2113", "Event21",
        "KyWildcatOgre", "KyWildcatOgre",
        "skybuxs", "Skybuxs",
        "cosen3", "cosen3",
        "tsurfdog", "tsurfdog",
        "PJ322_", "PJ322",
        "HuskerBrad", "HuskerBrad",
        "Huatson07 -- Filthy Dodger Lover", "huatson07", 
        "killerbird19", "killerbird19",
        "ragin_al 🖕", "ragin_al",
        "kingofsheep55", "jrcharm545",
        "neptune22123", "Neptune",    
        "StuperSystem", "EMF",
        "boat_buddy", "bajajoe",
        "calico12_", "Calico12",
        "twiztedtony", "twiztedt0ny",
        "bigtownbrown", "bigtownbrown",
        "boobsgirl", "Oh grow up, would you?!?!?",
        "boobs", "Oh grow up, would you?!?!?",
        "diezel999", "diezel99",
        "henlo1", "henlo",
        "tommytuw", "TommyTuw", 
        "JohnnyOakman", "Johnny Oak",
        "kztv_", "KzR",
        "ExpectedValue", ".Tree",
        "Shenron55", "Shenron7",
        "albatross_71", "albatross71",
        "chubbst", "Chubbs",
        "MrPimphand", "Mr.Pimphand",
        "fuzzycableguy", "Fuzzycableguy",
        "DegenTingles", "JimmyRunsDeep",
        "gamr4life70", "gamr4life70",
        "dorkuprising", "Dorkuprising",
        "pokerdad2878", "Ldmariodl28",
        "bonc555", "Bonc555",
        "dcdoorknob", "dcdoorknob",
        "rockenaces", "rockenaces",
        "sailormoe", "Popeye",
        "dukeman322", "dukeman322",
        "stc1781", "cheezmo1781",
        "theoneyouloseto", "theoneyouloseto",
        "angrymucker", "angrymucker (scary)",
        "JohnEx311", "JakeX",
        "chadman7il", "chadman7il",
        "rileythehawk", "RileyTheHawk",
        "security200_", "Security200",
        "mimsto12", "mimsnow",
        "watto0623", "watto",
        "davie6984", "davie6984",
        "rob14612", "RudeRobbie",
        "mrroyalflush1", "MrRoyalFlush",
        "stevenhare041390", "stevenhare41390",
        "bighaze420420", "bighaze420",
        "ezj81", "ynotsteak",
        "gabpoker_cc", "gabpoker",
        "GhokuBlack", "Ghoku",
        "toxicwangjuicedeeznuts", "deez-nuts",
        "ossie2121", "renato21",
        "ravensfutball", "ravensfutball",
        "asprayj", "AsprayJ",
        "buttermilk19", "Buttermilk19",
        "soupieeeee", "soupie",
        "rwurbat", "rurbatsc",
        "oriholic", "oriholic",
        "rollotemaci", "rollotemaci", 
        "pucksnpoker", "pucksnpoker", 
        "glenzim", "zman77",
        "sitremba", "sitremba",
        "kingofsheep55", "jrcharm55",
        "gtb911", "GTB911",
        "drwabo222", "Bobolynx22",
        "fancyfingers802", "fancy fingers",
        "lizzie9575", "Lizzie75",
        "CrazySixes", "Crazysixes",
        "SpicyKraut_", "SpicyKraut",
        "nextleveldfs76", "NextLevel76",
        "gingerakaglbrneyz", "glbrneyz",
        "GodsBigToe", "GodsBigToe",
        "deionsteve", "DeionSteve",
        "DaCapitalistPoker", "DaCapitalist",
        "Label_Guy", "houseaccount", 
        "truckinpoker", "TruckinPoker",
        "bingoray", "bingoray",
        "weekndwarior", "weekndwarior",
        "thefolder21", "thefolder",
        "MoltenAshes", "MoltenAshes",
        "caramelmoch", "Eze1",
        "stinky1211", "stinky1",
        "smoothjj5", "smoothjj5",
        "yoitsrick", "YOitsRick",
        "errkster", "errkster",
        "arlynnia", "arlynnia",
        "GSD_Poker", "GSD_Poker",
        "un4seen111", "UN4SEEN",
        "WinByTKo", "Win.by.TKo",
        "cetak66", "cetak",
        "any2willbrew", "any2willdo415",
        "35marlin", "35marlin",
        "devinny1994", "DeVinny",
        "neptune22123", "Neptune",
        "royalreaper8077", "RayRay68077",
        "dschneid6", "David6",
        "thkramer14", "thkramer14",
        "dukeman332", "dukeman332",
        "tinoman3624", "TinMan3624",
        "rodeo79", "D1reW0lf",
        "dsoxfan", "Dsoxfan",
        "hypn0t1ck", "deejay27",
        "docjacks", "SonnyB",
        "DatDadLyfe", "DatDadLyfe",
        "ADCG", "SittinPerty",
        "lawfox88", "lawfox87",
        "Marshack", "Marshack",
        "jabroniepoker", "Jabronie",
        "ceenote72", "CNote72",
        "onoudnt812", "Ou812MaN",
        "mja080", "Mja080",
        "sammwize", "SamWize",
        "ChefWillPoker", "ChefWillPoker",
        "verve23", "13threaper",
        "patboone777", "patboone",
        "PaullyDM", "PaullyDM",
        "childplease46", "childplease46",
        "Show540", "BansheeGuy",
        "stevebennet", "LionelHutz",
        "bailey0213", "bailey0213",
        "kimbpara", "kimbpara",
        "frombiloxitovegas", "FromBiloxiToVegas",
        "Mr_BlondeTV", "DavPerz",
        "nystallion", "PJPain",
        "Irishstud14", "irishstud14",
        "jcoop28", "rocket2018",
        "grindergirl44", "grinder girl",
        "valkidd8", "CheckRaiseAA",
        "edsheyeyo", "edshemateyeyo",
        "Bwise387", "BwiseTC",
        "sloplay0", "sloplay0",
        "ssskip91", "ssskip91",
        "sportsmom8524", "sportsmom8524", 
        "show540", "BansheeGuy",
        "scoobydubious1", "scoobydubious",
        "whiskeyrebel12", "whiskey12",
        "gerbilnuts", "Bradygoat",
        "corona02020", "corona2020",
        "jacobjean", "Jacobi72",
        "jpcarroll010", "inurphase",
        "inspite1988", "slowplayer88",
        "onoudnt812", "Ou812MaN",
        "geektheoryoptimal", "BetterBettor",
        "TheraPissedPoker", "TheraPissed",
        "zacharooster", "zacharooster",
        "buffaloboy43", "buffaloboy43",
        "OldWisco", "OldWisco",
        "Xsmiley77", "smiley771",
        "horsemen224life", "horsemen22",
        "vikwillwin", "Smoking Mikey",
        "horseman224life", "horseman22",
        "swizzle1221", "swizzle74",
        "hoodwinkdog1983", "saltbox1983",
        "ubercon5150", "maximuspayne5150",
        "beeltea1", "beeltea",
        "ddiggler89", "DDiggler",
        "mragamer816", "mattyice816",
        "kotjmf", "kotjmf",
        "thechachmed", "ItBeLikeThatSometimes",
        "DukeOfYoloshire", "DukeOfYoloshire",
        "wicked10j", "wicked10j",
        "leoslounge", "LeosLounge",
        "nutzo83", "flop_nutz33",
        "bangarang614", "maticus",
        "audiocloudlive", "AudioCloud",
        "erdna1121", "erdna1121", 
        "clashofprobes", "porqpine",
        "El Tornado", "lycofool",
        "ZaXXoRR", "ZaXXoRR", 
        "tino3linda", "TinMan3624",
        "da13beats", "da13beats", 
        "IBLUFFYOUNOT", "IBLUFFYOUNOT", 
        "thesmeef1", "thesmeef", 
        "okkkayyy", "okkkayyy", 
        "hollywood315", "hollywood68",
        "steph4life", "steph4life",
        "freaxious", "freaxious", 
        "Luckshmuck", "Luckshmuck", 
        "akayoungman28", "akaYoungMan",
        "sittingbulldozer", "RobtheRake",
        "the_real_abc112358", "ABC112358",
        "rebuyplease", "masl3pyte",
        "Johnraw91", "JohnnyKarate",
        "Rusty_Taint", "Squiddoober",
        "Deadlyorange13", "DeadlyOrange",
        "ronte912", "the_ronte",
        "mfijikowske", "MFijikowske",
        "kylie_ann31", "*fUEL_mY_fire",
        "akayoungman28", "akaYoungMan",
        "heavydizzler14", "heavydizzler14", 
        "skolviking1992", "purdinator92",
        "WilburnDavid", "Wilburn David",
        "drkwav888", "drkwav888", 
        "rhinolewisburbs", "RhinoLewis",
        "ChanceZepeda", "PaintedDog",
        "TinCupPoker", "tincup33",
        "djgoldchips", "djchips",
        "mickeyvee", "HSP Mikeyvee CFL",
        "mdboarder", "mdboarder", 
        "jcrazy1987", "JCrazy87",
        "snbgl", "Sirbogz",
        "astrosws17hghg", "AstrosWS17hghg",
        "MartiniTime55", "MTPocket",
        "henevernota", "MasMas",
        "frshlybkd420420", "NotWorthitBruh",
        "royalflush122096", "royalflush122096", 
        "pokerjoker93", "pokerjoker93", 
        "shamwowedyou", "shamwowed",
        "FireMedic815", "Eiben Phelted",
        "henevernota", "masmas08",
        "Malignant_T", "Malignant",
        "cannedsalmon", "Momo Jojo",
        "stkduagain", "stkduagain", 
        "got2wintoday", "tip4y",
        "cloud007vjb", "cloud007",
        "mcconnellalan", "SFCPsyop66",
        "marcoroy13", "kaprikok",
        "irondog254", "IRONDOG",
        "hardtimes28", "hardtimes28", 
        "blazintrails616", "chasek616",
        "any2willbrew415", "any2willdo415",
        "playuppompey8888", "pompey657",
        "jgoldstein924", "jgoldstein",
        "1luckyirish1", "1luckyirish1", 
        "xcharliexak", "CHARLIE_______________",
        "babyshark071", "babyshark071", 
        "Zorion82", "untouchable82",
        "olso87", "concepjr",
        "f0urtwnty", "f0urtw3nty",
        "iamnever", "HeartCore18",
        "smith18181", "Smith18",
        "tyggshipit", "TYggShipIt",
        "nkdandy", "Andyw420",
        "00stacks", "00stacks",
        "abrantes1974", "captnviagra",
        "malcolmpowd3r", "icunicu83",
        "jay_romey", "J_Roam",
        "unseenchaos2020", "Headcharge1",
        "phillipswinnierpm", "TheRealPokerFaceKilla",
        "ceezythe01", "Seat1",
        "drewwwchainz", "DrewwwChainz",
        "Bardolino1999", "Stogieguy",
        "FrostyTheTruth", "TruthSpeaker",
        "drew52786", "drew52786",        
        "tyggshipit", "tyggshipit", 
        "MarkFromDarkk", "MarkFromDark",
        "drew52786", "drew52786", 
        "stlcardinals6", "FlushMe2Tears",
        "tscarborough15", "freshsqueezedlemon",
        "Hawkamus", "Hawkamus",
        "beakwitha", "beakwitha", 
        "Sbruner17", "KerryKittles",
        "dollarbill54", "legacy37",
        "deeboo78", "fish9911",
        "siunami14", "mjlu322",
        "MachinistJoe", "machinistjoe",
        "xtherealherbal", "DKJC",
        "astehleunc", "FlipN4Stacks",
        "ogden3303", "KidzNplay",
        "DrBobMedia", "Animos",
        "frankiefresh82", "vla",
        "trist333", "modsbanme", 
        "stopspitting", "KTKC",
        "coldhanded514", "DaWhoopster",
        "jlubea", "wgbhboston",
        "joephishvh", "PhishVH",
        "cashjunkeee", "cashjunkeee",
        "footbase1550", "footbase1550",
        "bigcountry3808", "bigcountry3808",
        "Vicechic", "Vicechic",
        "pocylpse", "pocylpse",
        "siunami14", "mjlu322",
        "MachinistJoe", "machinistjoe",
        "xtherealherbal", "DKJC",
        "astehleunc", "FlipN4Stacks",
        "ogden3303", "KidzNplay",
        "trist333", "trist333",
        "DrBobMedia", "Animos",
        "frankiefresh82", "via",
        "stopspitting", "KTKC",
        "coldhanded514", "DaWhoopster",
        "jlubea", "wgbhboston",
        "joephishvh", "PhishVH",
        "cashjunkeee", "cashjunkeee",
        "dollarbill54", "legacy37",
        "footbase1550", "footbase1550",
        "mucker_f", "MuckerFuker",
        "MrMarp", "matt.r",
        "Wendysayso", "Wendy Says",
        "Sharkbite112", "Sharkbite112",
        "oslo87", "Concepjr",
        "jackickass99", "jackickass",
        "Donk79", "Donk79",
        "stephy2112", "stephy2112",
        "RaniusLoL", "Rayn",
        "billmaine1", "BillMaine",
        "miki424", "Pocket_Quads",
        "themachinistpoker", "The Machinist",
        "MG_Geek", "MG_Geek",
        "cloud007vjb", "cloud007",
        "TheRealJFinch", "TheRealJFinch",
        "outkickedsc", "outkicked2010",
        "sophiasdad11", "Mr.Ace",
        "Conti1228", "Conti1228",
        "el_brujo_especial_", "El Brujo Especial",
        "peanutflush", "peanutflush",
        "gameoverperiod", "GameOver.",
        "carushfan", "carushfan",
        "ou812man", "Ou812MaN",
        "ladybug636", "LadyBug636",
        "cubbies23bb", "cubbies23",
        "shaggsterese", "ShaggsterEse",
        "vemover", "VemOver",
        "karben313", "karben313",
        "pissankle", "Horatio Cornblower",
        "turd2021", "Big Turd",
        "livnlegends", "Livnlegend",
        "uhIloveit", "FaceDownAceUp",
        "loc_tigersbite", "tigersbite",
        "lilmanwicks", "LIL KID POKER",
        "scovegas", "shooterz111",
        "happydeath8", "Happydeath",
        "matpipes", "matpipes114",
        "whatevergenxer", "Floof",
        "Gooseman18", "Gooseman18",
        "1roguepixie", "RoguePixie",
        "crzazydancingguy", "alex_c",
        "skimpysally", "skimpysally",
        "FreddiesDeadieButHasAces", "8AK6",
        "YouBettaFold", "YouBettaFold",
        "generalkido28", "Generalkido28",
        "raydello7", "raydell07",
        "JonPena2145", "jonp214",
        "getpaidct", "getpaidct1972",
        "NoSkillzJustGillz", "NoSkillzJustGillz",
        "JeffGemm", "AAcesFool",
        "madrudy31", "Mi Hermano",
        "Chuckbergeson", "Chucky_Bacon",
        "grntrees22", "GrnTrees22",
        "jcharlton86", "pokerkid86",
        "Dpinney08", "wafflecrusher",
        "thetiburon1", "thetiburon",
        "dlo65a", "Dlo65",
        "bounty120", "bounty333",
        "rynholdn", "RyNholdN",
        "mrs_swoop", "Mrs. Swoop HSP",
        "rodrigogarijo", "surfneve",
        "chichef81", "chichef81",
        "gr8ful_fred", "Gr8ful Fred",
        "ShadyCase", "Sully2014",
        "MattyDS", "thnksfrplyn",
        "morethanaflame15", "LIONK1NG",
        "SoleSurvivorAdam", "survivoradam",
        "skeletorbry", "_skeletor_",
        "multifast1", "multifast1", 
        "callmepills", "pokerpills",
        "PoorChump", "PoorChump",
        "wetmoose613", "wetmoose",
        "bornlucky123", "candyadkins",
        "frankiefresh82", "vla",
        "megalodontitan", "TennesseeTitan",
        "lad23der", "lad23der",
        "nuts24", "Nuts24",
        "rickr357", "Rick357",
        "jasonjunit", "sixesandsevens",
        "winbabyREM", ".REM.",
        "bjmassie", "NoPokerSkilz",
        "cibakid", "ciba1",
        "joecutraro", "Nitrojoe",
        "darrenk1q", "darrenk1q",
        "judge_b23", "B2000",
        "LoloKJuik", "LoloKJuik",
        "jcoplen86", "JLynn05",
        "remithatonemf", "RemiThatOne",
        "camo2121", "camo2121",
        "kidogo83", "kidogo",
        "flopmiser", "flopmiser",
        "gabetheplumber", "gabetheplumber",
        "CreamCheeseCake", "alexcsb",
        "catswhodab20", "catswhodab",
        "pokerpro420420", "Pokerpr0420",
        "nachodayglobal", "Nacho Day",
        "LDMoneywins", "LDMoney",
        "joekickass99", "joekickass",
        "zjp323", "LiveOnRiv",
        "themaneuverak", "TheManeuver",
        "dhhiii", "dhhiii",
        "jjbird25", "JGodfrey",
        "Invictus_s13", "Perfidiousbluffer",
        "duckman2090", "medic2090",
        "wendysaysso", "wendysays",
        "footbase1550", "footbase1550",
        "theump03", "Jlh1903",
        "Dandoon69", "Dandoon69",
        "ZEyeOnTwitch", "FarQ",
        "rdrake4200", "rdrake420",
        "bornlucky123", "cindyadkins",
        "bigkempin", "bigkempin",        
        "u_donemessedup_a_a_ron", "TheRightAngle",
        "deadly_amoeba", "Cosm1cAnon",
        "tippietoes10", "tippietoes",
        "Pokerandamovie", "PokerAndAMovie",
        "79ellipsis79", ".ellipsis.",
        "kalebisdunn", "huskers1862",
        "chipcritic", "chipcritic",
        "Voidzzzy", "Voidzzzy",
        "mralwaysoneaway", "MrRaider319",
        "fer9k", "fer77",
        "Belthazar666", "ItsLouis",
        "austinb44austinb44", "austinb44",
        "gamerz0714", "MarkFromDark",
        "hs_vp_819", "Bjett7484",
        "terpgirl921", "al-lin",
        "whodoobucrew", "whodoobucrew",
        "dad1956", "cozmo56",
        "maaaando", "maaaando",
        "bennytitepants", "BobbyBenbaum",
        "touhhturfmj", "aceontheway",
        "JessPlaysPoker", "jesscass3",
        "UhIloveit", "FaceDownAceUp",
        "Voidzzzy", "Voidzzzy",
        "boredplayingpoker", "Jacksagain",
        "DrJustWin", "DrJustWin",
        "Easteral", "BoyHowdy",
        "edwardbetz", "Betzster",
        "dieteticewe42", "NCPlay4Fun",
        "noiiiice", "ooowscaryghost",
        "DrenningTV", "Drenning",
        "Ekl_Duderino", "Feral_wookie",
        "pacalolo11", "pacalolo1",
        "xshogun1991", "TheDonkinator",
        "felicissuerte", "felicissuerte",        
        "ty0506", "ty0506",
        "number_generator", "satori21",
        "hellogoodbye07", "HelloGoodBye7",
        "krillcosby", " krillcosby",
        "winbaby36", "winbaby36",
        "novicemonk", "bearsnoname",
        "bratellia", "bratellia",
        "dardusm", "dardusm",
        "chaosriftgp", "chaosrift",
        "alexise13", "Scarballs13",
        "samto12", "samsnow",
        "skinny_biggs", "Skinny Biggs",
        "terpgirl921", "Al-lin",        
        "jhinders", "Hinders1",
        "rizza7878", "Rizzakillz",
        "aceofaustin", "Aceofaustin",
        "JCurt10", "Cardinals10",
        "bigjfk", "greatvalue",
        "justinjaguarlee", "LIIIIIIIIIIIIIIIIII",
        "dad1956", "cozmo56",
        "DarkPhantomPoker", "DarkPhantom",
        "arnoldhino20", "Frothy123",
        "kidder30", "kidder30",
        "hardtimes28", "hardtimes28",
        "krillcosby", "Krill Cosby",
        "ablackhOLe", "ABLACKHOLE",
        "ParanoidBadger", "PowerPigMelo",
        "zootedpears", "ZootedPears",
        "MTGsadness", "Averyfinedonkey",
        "JohninNY330", "Jigsore",
        "yuk12", "selling bread",
        "slinginsam", "Slingin Sam",
        "cronopoker", "fireburns",
        "ricksuck", "Rick_Gee",
        "gamerz0714", "MarkFromDark",
        "wafflekrusher", "Sharp_cheddar",
        "prestidig", "King Rag",
        "royalflush122096", "royalflush122096",
        "analogmatias", "matiasbot",
        "pbody5205", "PBody5205",
        "LaRockObama", "LaRockObama",
        "ryan2atkinson", "icebluefigi",
        "2deadicated", "KingJakob",
        "prionace1", "Prionace",
        "radiodaze", "RadioDaze",
        "thunder_mifflin", "ThunderMifflin",
        "eddiebetz", "Betzster",
        "globalgano", "Gano",
        "audreyrugburn", "AudreyRugBurn",
        "RamboWannaB3", "StoneColdRiver",
        "cigamerup", "cigamerup",
        "screenman111", "screenman1",
        "D_koot", "Dkoot",
        "andygames768", "Andygamespoker",
        "jackhigh123", "jackhigh223",
        "smile0726", "smile0726",
        "pokerproffy", "proffy",
        "boooluu", "Joker 1975",
        "jShawPro", "shawshank",
        "DavidCookMan", "BuyMyDrugsMkay",
        "twinclapscheeks2", "twin9900",
        "FlacoPat8", "FlacoPat8",
        "daddie6stargs", "6*Gs",
        "JoeyVfromtheOC", "JoeyVado",
        "JBonham13", "JBonham",
        "ArmoNster", "GrizzLy1H",
        "javels_", "Javels",
        "outkickedsc", "outkicked2010",
        "thrillxkillx", "Thrill Kill",
        "oneijacks", "1iJacks",
        "luckydog9510", "Ton3down",
        "norriscjn2009", "XxMrxxNorris",
        "globalpokerkickflip614", "kickflip614",
        "MLMarshall", "Anubis89",
        "oakleyboy2", "oakleyboy",
        "FoolishProffesor", "FoolishProf",
        "porkchop504", "porkchop504",
        "stoaf88", "Jessica07",
        "cwk1", "cwk123",
        "swineflu01", "minnow in deep",
        "thejacketsmagee", ".Jackets MaGee",
        "maverick__1999", "maverick1999",
        "any2brew", "stepyogameup415",
        "devon5112", "soulcrush1953",
        "duckslayer8484", "Duckslayer84",        
        "jshreds87", "Jshredz",
        "BarryF927", "BarryF927",
        "ramrod21d", "ramrod21D",
        "rockandrollpoker", "Zbird",
        "mhisc", "Drgray",
        "biscuitfirer", "biscuitfirer",
        "rxqueen4025", "RXQueen",
        "troottola", ".Medea",
        "So_Classic", "TroyHarr",
        "acroshirt", "ACROPOKER",
        "mojo_eraser", "MOJOERASER",
        "King_iEcho", "iEcho",
        "pok333rbrat", "Pok333rbrat",
        "I_m_Jason", "+3V",
        "lonestarguy", "Yukon Jackal",
        "uclaguy74poker", "uclaguy",
        "bigslick1972", "Bigslick72",
        "hankfrid", "HackerHank",
        "aajohnnyaa", "aajohnnyaa",
        "johnynothumb", "ieatflies",
        "mikemeunier", "bruinsfan",
        "deathsemissary7", "RebelWithoutACause",
        "milkymilkystevey", "Cartermac",
        "poker_mike", "poker_mike",
        "alittledazed", "alittledazed",
        "burdzy86", "BURDZY",
        "toxicwangjuicedeeznuts", "BigBully0190",
        "dpokert", "dpokert",
        "flyerz20", "Anthony Carroll",
        "jbhopko", "jbhopko",
        "joedeertay425", "JDirt425",  
        "rosey62", "rosey62",
        "d0nkin8tor", "D0nkin8tor",
        "ImShwetty", "Shwetty",
        "TheCrookedRaven", "lionfrothcrown",
        "iknuckals", "Ashtrohs",
        "OggDogg", "nutjob",
        "YodaCards", "Yoda82",
        "suited88s", "Suited88s",
        "teddyballgame61", "teddyballgame",
        "joey6134", "Joey 17",
        "andrewwilson262626", "AndrewWilson",            
        "unforgivable3", "dirty_socks",
        "mrbillinfla", "CLEVE-WILL",
        "gerardov916", "HeatherV916",
        "mattaffleck", "coldbrew",
        "poker_bonghoal", "Clint_Taurus",
        "luce_sassle", "Vannah",
        "crazydancingguy", "alex_c",
        "blacksheep9166", "blacksheep916",
        "mrbillinfla", "CLEVE-WILL",
        "briarrabbit9", "Briar rabbit",
        "westtndave", "WestTNCowboy",
        "whodaheck763", "WhoDaHecK763",
        "farfignutan", "farfignutan",
        "Squiddoober", "Squiddoober",
        "mrace4081", "Mr.Ace",
        "oakleyboy2", "oakleyboy",
        "thecarter665", "DugSlug",
        "mrstheriault", "PrettyPrissy",
        "jeremy81087", "Jeremy81087",
        "fauxpas39", "fauxpas",        
        "rp_venom", "venomx3721",
        "lonestarguy", "Yukon Jackal",
        "khadlives", "ThreeBarrelsLoaded",
        "TheJacketsmagee", "Jackets MaGee",
        "mdchap", "mdchap",
        "norrispender", "THIS KID ROCKS",
        "jackhigh123", "jackhigh223",        
        "crookruss", "crookruss",
        "jbillsglobal", "Jbills83",
        "GunsmokeSlays", "Tylongy",
        "TheUknownSkyz", "DustyW",
        "TallDarkNGassy", "TallDarkNGassy",
        "andygames768", "Andygamespoker",
        "bsheep916", "blacksheep916",
        "dook937", "Dookdyt937",
        "King_iEcho", "iEcho",
        "jtchipleader", "jimmy140",
        "Bdean0587", "turtle0587",
        "twinclapscheeks2", "twin9900",
        "dgilzzz", "Dgilz",
        "kindacrz31", "Kindacrzy",
        "thenewsanta88", "thenewsanta",
        "napadam2007", "Adam27X",
        "str8to5", "str8to5",
        "jimmy140poker", "Jimmy140",
        "nuts242", "Nuts24",
        "blakedorian", "Blake6969",
        "sharkmun007", "sharkman007",
        "Drixhen", "Lazlo2",
        "proxim101", "Proxim0",
        "nimbledwarf", "JakeRock",
        "cysco72", "Cysco",
        "bad_apple", "bad-apple",
        "theonlynameavailable1", "ilsudur007",
        "callmechristiann", "Christian69",        
        "ArchonFamily", "Archonei",
        "dinulipattisbones", "AwwwNutz",
        "GorillazFanatic", "GFan",
        "drivehard71", "drivehard",
        "angryamish69", "angryamish",
        "maxvmv", "maxvmv",
        "kingsac13", "Kingsac",
        "DumbLuckPokerSociety", "belmont229",
        "KENZOtheHARD", "C. Darwin",        
        "fishm0nger", "Proffy",
        "GAM8L3R777", "GAM8L3R777",
        "Parlayvous90", "Parvenu90",
        "gtppokerworld", "GabeThePlumber",
        "Blindace21", "RareForm",
        "GambleOn13", "WeShallSee",
        "spinningmule", "Spinning Mule",
        "Risenking22", "Risenking22",
        "bigturd2021", "Big Turd",
        "aray84", "Zookeeper84",
        "landensdad14", "Bossdup",
        "chichef81", "Chichef81",
        "sgt_thrill", "Kindacrazy",
        "MrGoldenPair", "MrGoldenPair",
        "toocoldbaby", "Toocoldtohold",
        "freebloodybirds", "INISHUL",
        "OvrAgrsvFish", "YouGonGetThisWork",
        "skolvikes87", "SkolVikes",        
        "stonedlifepoker", "stonedlife",
        "Hooble1", "hooble1",
        "shoveboss777", "shoveboss69",
        "pdrake38", "_Badatpoker",
        "playerdoris", "playerdoris",
        "dnice2025", "Dnice23",
        "landensdad14", "Bossdup",
        "dinulipattisbones", "AwwwNutz",
        "aceking409", "ACE5",
        "i_eat_dog_thighs", "GanjaGorilla",        
        "shbrady", "SHBrady",
        "boredplayingpoker", "JacksAgain",
        "drivehard71", "drivehard",
        "smashlanta", "smashlanta",        
        "skolvikes87", "skolvikes",
        "duckman2090", "..medic2090",
        "duma2015_", "Duma2015",
        "treyzilla7464", "Treyzilla",
        "sunnyinsocal", "sunninho",
        "Dale Slides", "Thegoldenpooter",
        "mynamesdookie", "mynamesdookie",
        "cnixon1973", "babygirl89",
        "MgGriebZ", "MgGriebZ",
        "Bulldoggy", "Foldwinner",
        "OvrAgrsvFish", "YouGonGetThisWork",
        "Shaarp83", "Shaarp83",
        "patrickplayspokerbadly", "PlayBad4Sure",
        "zanderxl_global", "XanderXL",
        "bdubs121t", "Bdubs121",
        "smuthe1", "oososmuthe1",
        "hokymon", "iCon",
        "sunnyinsocal", "sunninho",
        "zjp323", "LiveOnRiv",
        "uhlloveit", "FaceDownAceUp",    
        "ineedasponsorforpoker", "ineedasponsorforpokr",
        "Bulldoggy", "Foldwinner",
        "Mmoduno619", "TheBigg40",
        "joey6134", "Joey 17",
        "woody_lol88", "Nisassa",
        "watupboy101", "watupboy101",
        "xxmrxxnorris", "xxmrxxnorris",
        "beerdude81987", "Chadman7il",
        "pairofpigs", "Knicker Kicker",
        "stlouislance", "stlouislance1",        
        "LaxxedPoker", "ShillinAintEasy",
        "Mattychise", "mattychise",
        "leto900", "crimewavve",
        "pitabread189", "Karissa13",        
        "cloudgfg", "cloudgfg",
        "jiriki3", "JIRIKI",
        "pcaughron", "PattyC",
        "stansteamer99", "StanSteamer",
        "miki424", "Pocket_Quads",
        "uberscientist", "friendo",
        "novicemonk", "bearsnoname",
        "codyy_c", "brokendealer",
        "mrnacmonkey", "3ofSpade",
        "pairofpigs", "Knicker Kicker",
        "OvrAgrsvFish", "YouGonGetThisWork",
        "rhaj519", "ArcticBob",
        "dohhluc", "dohhluc",
        "iratepirate47", "IratePirate",
        "tmally121", "TMally121",
        "redribbonrecon", "Redribbonrecon",
        "dandoon69", "Dandoon69",
        "yooitsrick", "YoItsRick",
        "SpaZMonKeY777", "SpaZMonKeY",
        "kinetic6666", "kinetic6",
        "cysco72", "cysco",
        "Flamedraggie", "FlameDraggie",
        "tfneuhaus", "MooseaMoose",
        "Mmoduno619", "TheBigg40",
        "storageguy1", "storageguy1",
        "pktpair", "Wilson3454",
        "knightOwl69", "knightowl1",
        "feltherup", "FeltHerUp",
        "gp_billyion", "Billyion",
        "ThaBee", "QBee2",
        "tcbaseballfan", "tcbaseballfan",
        "nowitsmine247", "nowitsmine247",
        "blang0296", "blang96",
        "Kingbum365", "kingbum",
        "dontwatchtooclose", "dontwatchtooclose",
        "GDC14GTiger", "14GTiger",
        "nokgetthatinfo", "Noktambulist",
        "crzychnaman", "insane chinaman",
        "baggerly", "baggerly",
        "houseofcardspspa", "ActionTraction",
        "bdubs121t", "Bdubs121",
        "@montni__", "Montni",
        "mashellered33", "Red333",
        "magicianword", "Joker King",
        "ppppppppppppppppppppppppc", "Romantichuman",
        "jdutchmaster", "59flush",
        "joho453", "joho453",
        "thestoneysniper", "StoneySniper",
        "pauperpoker", "pokerpat jj",
        "johhnyvarvatos", "JohnnyVarvatos",
        "ajm1954", "ajm1954",
        "Flippin4five", "flippin4five",
        "joshschulte01", "joshschulte01",
        "neucifer", "neucifer",
        "Khnightwulf", "Ghoku",
        "emoney_ak", "1 Emoney 1",
        "zahtzz", "Champanepapi",        
        "Chesapeake71", "Chesapeake71",
        "rauldukepoker", "raulduke",
        "gatorfanhawk", "GatorFanHawk",
        "painteddog_", "PaintedDog",
        "sicilian323", "Sicilian323",
        "fl4t___", "FL4T",
        "BadReeds", "Zxxz44",
        "TekiTee", "tekitee",        
        "jungernaut747", "Jungernaut747",
        "joshie_james", "NoLimitDibbs",
        "dylncrys09", "dylncrys09",
        "nitro985", "Nitro5",
        "Tony_Snow__", "MindoverMatter_",
        "THEbagpipeguy", "THEbagpipeguy",
        "JenniferTilly", "klyoko111",
        "scurvyaxis2080", "MrAAces",
        "pfg96", "pfg96",
        "Fatty_Killed_Ya", "Vin The Great",
        "montni__", "montni",
        "chyna88", "killedbill",
        "CrazyMrJimbo", "CrazyMrJimbo",
        "philalex94", "Str8sm0k3",
        "Schwab", "SchwabTTV",
        "thestoneysniper", "StoneySniper",
        "farragutsdaddy", "Grappler1989",
        "offtilt690", "Offtilt69",
        "audioknifetwitch", "audioknife",
        "nerfherdersc2", "Nerfherd3r",
        "libidinous1", "Libidinous1",
        "smallfrypkrguy", "SmallFryPKRGUY",
        "kidjrock", "da kid poker",
        "pok3rshark17", "pok3rshark17",
        "microlimitpro", "microlimitpro",        
        "mep8888", "mep8888",
        "stoneysniper1229", "stoneysniper",
        "imiKristin", "iKristin",
        "fancyfreunds", "Fancyreunds",
        "goebodylc", "GodBodyLC",
        "karmapalama", "blitzed",
        "kenbone44", "cheapthrills22",
        "catchick64", "CatChick",
        "lakesidepaul", "DISCODISCODISCO",
        "sayyourprayers3", "boomgoesthedynamite",
        "looter23_ut", "looter23",        
        "jedimindtrick033", "Jedimindtrick",
        "BazookaBenjiBruh", "ZenPoker69",
        "dantheman44tax349", "dantheman44",
        "gppoker", "kindness1",
        "fearucankiss", "BOBBYWAR",
        "iamtrippyhippyy", "TrippyHippyAA",
        "dariusdetiger", "DariusdeTiger",
        "bandit28681", "Bandit2017",
        "alimoncu", "AzWaldo2413",
        "rgn01t", "piddy1981",
        "unitiger420", "unitiger420",
        "xxx3m3r4ldxxx", "xxx3M3R4LDxxx",
        "4twenty69s", "SomeDonkey",
        "ester800", "Ester800",
        "fishm0nger", "Proffy",
        "temirzhan888", "temirzhan888",
        "gs750", "gs750",        
        "paddyj62", "paddyj62",
        "yutry17", "squin12",
        "713chipmonster", "chipmonster",
        "vitiablemoss840", "vitiablemoss840",
        "kocainpxistk", "3barrelshotty",
        "chooks2g0", "chooky",
        "REIMON100", "REIMON100",
        "Happyface79", "Happyface79",
        "infraredmegat", "infraredmegatron",
        "GAM8L3R777", "GAM8L3R777",
        "The_Nemesis_27", "Nemesis91",
        "Rye_bread21", "ryanv312",
        "hanamean1", "MilesPH",
        "MinnMatt", "Slow_N_Low",
        "brooklynsultan", "Brooklyn Sultan",
        "keith_2008", "Kdfools",
        "handlev", "Bad ip",
        "zenrambo", "ZenRambo",
        "okayme2", "okayme2",
        "Kefka777", "Kefka777",        
        "blackcat_poker", "MrChas",
        "BaKeRs_World", "Bakersworlds",
        "SmoochieC", "Smoochie22",
        "kylie_ann31", "*Fuel_My_Fire*",
        "primekyme", "primekyme",
        "rpharp", "RPH",
        "elearner5", "dance4me",
        "chill_winston", "Nat Bridge",
        "hood_robin", "Hoodini",
        "iifeofwhy", "LifeOfWhy",
        "bbbzzrtkchkchkch", "uigg",
        "mikecash813", "Mikecash813",
        "mojoeraser78", "MOJOERASER",
        "patchey88", "patchey88",
        "papadas_", "papadas",
        "prayngaming", "Rayn",
        "istdaseinetaube", "YoUhUnD ",
        "metaphysikill", "MeTaPhySiKiLL",
        "napadam2007", "Adam27X",
        "phivedeadphish", "BeefCroghanov",
        "shadowhunter187", "tj26",
        "kylesidious", "Kylesidious",
        "klyoko111", "Jennifer Tilly",
        "julorierose", "Julorie",
        "thegreatgameofrazz", "aubergine",
        "theangryrook", "angryrook",        
        "CharltonIsGrinding", "pokerkid86",
        "WxW2010", "WxW2010",
        "bodymand", "Body Man D",
        "Rollar65", "Rollar",
        "AndreyGuima", "AndreyGuima",
        "johnbets", "JohnBets",
        "atsrock62", "Secret Shopper 99",
        "TripHop", "Juke",
        "darkmarcus88", "DarkMark",
        "Cabbage2k", "yungcabbage",
        "JimmyTheSlacker", "JimmyTheSlacker",
        "maggied1234", "MaggieD",
        "mikeyluken", "nibblonian",
        "holmquizzle", "Holmquizzles",
        "NotAvailable001", "Not Available",
        "POCKETEIGHTSLFG", "calvinbranchjr1",
        "thoughtpolice_84", "ThoughtPolice",
        "benjaminkite", "RU4REALZ",        
        "bwebs210", "bwebs",
        "DrBobMedia", "Animos",
        "sactk1", "SACTK",
        "zech1123", "zech1112",
        "jimmy233423", "jimmy233423",
        "caligrinder", "Caligrinder",
        "ormagedon1", "Ormageddon",
        "iwantit213", "iwantit2",
        "suckoutsally", "suckout sally",
        "bballref803", "SCNutFlush",
        "evedder77", "BoomerSooner77",
        "Iguessbro101", "Classified information",
        "Debtrimental", "tompettyness",
        "darrenk1q11", "darrenk1q",
        "bobtheturner", "RiverWrangler",
        "paulytwich", "Pauly1",
        "tfneuhaus", "MooseAMoose",
        "twinztcl2", "Tylairr",
        "muckferunning", "muckferunning",
        "Scootymak", "scootymak",
        "murderin_texan", "Supadonk",
        "DirtySecreT1H", "DirtySecreT",
        "rolanddeschaingp", "RolandDeschain",
        "DoctorQ", "DoctorQ",
        "keith_2008", "kdfools",
        "SlipinJimmy", "SlipingJimmy",
        "ancuradh64", "AnCuradh",
        "Camnutzzz", "Acdcameron",
        "Tootame4me", "Cardguy14",
        "Psilocybin_lover", "tantraking",
        "melinnah94", "melinnah94",
        "bmx1k", "breakitbuyit",
        "ectonaut", "EKaz",
        "bigculldog", "BigCullDog",
        "thecarter665", "DugSlug",
        "fastguyeddie", "fastguyeddie",
        "injury03", "injury503",
        "ctman9710", "Real Deal McNeil",     
        "chrislemire", "ICU8ME2",
        "jpoker87", "Jpoker87",
        "prudhvisonnati", "TAcidPockets",
        "MelinnaH94", "Melinna94",
        "more_reps2", "SlimeFlu",
        "travesityfund", "TravesityFund",
        "gaaangsterr", "gaaangster",
        "ramotrain31", "RamoTrain31",
        "stevewho2u", "FatalBullets",
        "andyrock62 ", "Secret Shopper 99",
        "itspicey", "Spiceysputnik",
        "fasternfarther", "Fasternfarther",
        "backadamllc", "BACKADAM",
        "theautomatedtellermachine", "ATM",
        "masteroogie", "masteroogie",
        "the_ticklefist", "Tigklefist",
        "tobyg1212", "TobyG12",
        "UriahCreep", "hymn_of_doom",
        "412gage", "412gage",
        "BabyGamblesDotGov", "Fatbobby",
        "spackaladades", "Calculxs",
        "canun228", "cajun228",
        "IsTdAsEiNeTaUbE", "YoUhUnD",
        "fasternfarther", "fasternfarther",
        "pcimaverick", "PciMaverick",
        "samobx22", "samobx22",
        "juice716__", "JuiceNY",
        "buzzedwin", "buzzedwin",
        "gary812abc", "gary812",
        "kngsaz", "sitnkrush1111",
        "icall2much", "icall2much",
        "TheDew", "TheDew",
        "sosorryulost", "SoSorryULost",
        "jeremy81087", "JJJ232714",
        "imaFlightRisk", "ishflop",
        "Manshoooot", "dissukz",
        "canun228", "Adirondack",
        "slothqueen35", "SlothQueen",
        "DBYou", "Tippy-Toe Joe",
        "danisancchezz", "dspoker",
        "Nevrtilt", "Nevrtilt",
        "ryanpetro84", "RyanPetro",
        "twichy19", "StackinChips19",
        "runUdown", "shooterz111",
        "englishjim", "EnglishJim",
        "Germus_Xeno", "GermusXeno",
        "suprsaiyangod99", "Mtolth",
        "dadscash", "dadxfour",
        "sirrrrr_", "SIRRRRR",
        "justjim2020", "JustJim",
        "23darealtopher", "DA REAL TOPHER",
        "ken603", "Ken603",
        "aapes1310", "AAPES",
        "omgitsvariance", "omgitsvariance",
        "kylie_ann31", "*Fuel_My_Fire*",
        "stevewho2u", "FatalBullets",
        "sweepnet", "giggle",
        "dpoundhouse", "dpoundhouse",
        "4u2dezire", "4u2Dezire",
        "oopdog", "oopdog",
        "Iguessbro101", "Heidijo0808",
        "texasque", "SixMil",
        "chudd1983", "Chudd",
        "freebloodybirds", "INISHUL",
        "lildude_89", "LiL-DuDe5189",
        "masteroogie", "MasterOogie",
        "greatsaltluke", "greatsaltluke",
        "AquaTheEuphoriaGirl", "EuphoriaGirl",
        "p_fuss", "Yowza",
        "bmoney3583", "bmoney3583",
        "wildcard812", "wildcard8",
        "CharltonIsGrinding", "Pokerkid86",
        "JimJimsonJr", "YouWishLoser",
        "thecod777", "thecod777",
        "ladylow509", "Alt509",
        "Squishypancake0", "Sqwishy",
        "dadscash", "dadxfour",        
        "chudd1983", "chudd",
        "stolen_id1", "Stolen ID",
        "mcluvin420", "itsalloverbaby66",
        "@thequeenbee01", "QueeeeenB",
        "phone8675309", "rabbit-hunt",
        "fukcazi", "OperationBluff",
        "drewhauersperger", "saltyNUTTsauce",
        "getpaidct", "Getpaidct1982",
        "wildcard812", "Wildcard8",
        "scaboni", "xscooby6x",
        "Skrublove", "skrublove",
        "kenblaze333", "mokujin",
        "security200_", "security200_",
        "mattymoc60", "mattymoc",
        "bake015", "bake15",
        "infraredmegatron", "InfraredMegatron",
        "sofajoe", "JoeBoy777",
        "Just1nR85e", "Just1nR85e",
        "1234kick", "Megan1982",
        "jw3bb81", "jw3bb",
        "popples22", "popples2",
        "Clanton22", "EZMONEY22",
        "cookiemonster368156", "ALPHAMALE 808",
        "Areyouworriedaboutrickets", "Words",
        "bumwild", "badbeat420x",
        "BCPBattletoad", "GodzillaNC",
        "bowmangab", "CurbYourLimping",
        "DaygoSupreme", "DaygoSupreme",
        "andyp223", "andyp223",
        "vasyl777", "player777",
        "tony22tall", "tony2tall",
        "dr3days", "arzate.dre",
        "DuderinoTerriffico", "DuderinoTerriffico",
        "thequeenbee01", "QueeeeenB",
        "mkzplayn2", "just plyn",
        "jaxjohn55", "Jaxjohn55",
        "snakeheadking420", "snakeheadking420",
        "psykosaltine", "Psykosaltine",
        "SirPersivol", "Persivol",
        "Legend__of__Legacy", "LegendofLegacy",
        "anyhoo", "anyhoo",
        "cipal1982", "Phoi",
        "sweet_aces", "SweetAcesAA",
        "daffybandit", "daffybandit",
        "arsenal1669", "Arsenal16",
        "ericcollier", "EricC30",
        "rodrigogarijo", "surfneve",
        "supermariojr53", "supermariojr53",
        "ultrarungood", "Tier",
        "vonerichs", "AbRaCaPoKus",
        "kidchilleen", "kidchilleen",
        "ccccarl_", "ccccarl",
        "slipinjimmie", "SlippinJimmie",
        "DawnSiren", "LastCh1p",
        "tankzen202", "Tankzen202",
        "nalai550", "nalai550",
        "Clanton22", "EZMONEY22",
        "ncwildcat", "NCWildcat",
        "donphoty", "DonPHOTY",
        "bowmangab", "CurbYourlimping",
        "firedankz", "FireDankz",
        "jkim7389", "Jeffkim",
        "mrmcnasry2u", "MrMcNasty",
        "angey14u", "Angey14u",
        "ballgame_fe", "Poker_phish",
        "ptr_tv", "ptr_tv",
        "KlausSchwabfan", "merlot420",
        "buybllstock", "BLL Stock",
        "screwwedup", "Vamoose",        
        "firedankz", "FireDankz",
        "jkim7389", "Jeffkim",
        "mrmcnasry2u", "MrMcNasty",
        "angey14u", "Angey14u",
        "ballgame_fe", "Poker_phish",
        "ptr_tv", "ptr_tv",
        "KlausSchwabfan", "merlot420",
        "buybllstock", "BLL Stock",
        "screwwedup", "Vamoose",
        "foldpremcgee", "Ellen.degenerate",
        "iisGavin", "iisGavin",
        "codebrew82", "Codebrew82",
        "thechipmeister", "thechipmeister",
        "omniluxio", "Omniluxio",
        "cidyo420", "cidyo420",
        "beau420", "moneyprinter",
        "goodluckall", "MeLucky1",
        "cgoateddd", "cgoated",
        "Rocknotes", "Rocknotes",
        "heavyc819", "Misclickgnuis",
        "billycove3", "BillyCove3",
        "Pandemonium1984", "Canes96",
        "nms9121", "nms9121",
        "ubernoooooob", "UberNoob",
        "XplicitXpert", "Xplicit",
        "nflanman2004", "WestCoastBias",
        "Zlyte", "orbtrader",
        "slashontrash33", "KShash33",
        "activia16", "Sniper16",
        "heavyc819", "Misclickgnuis",
        "mx338mojo", "messyjesse",
        "dgold27", "Papanugz420",
        "Cyrus027", "Cyrus027",
        "buzzyboys12", "Buzzyboys",
        "1pokerpro4u", "1PokerPro4U",
        "scottsowhatt", "Scottsowhatt",
        "bobbyballgame3", "Bazkar",
        "tipsybeard06", "tipsybeard",
        "bandit28681", "Bandit2017",
        "descryption", "Descryption",
        "00snead", "00snead",
        "angey14u", "Angey14u",
        "tmeaner", "T-Meaner",
        "zeetanked", "Zeetank",
        "ProFastGuy", "FastGuy716",
        "gunmetalfellow", "gunmetalblack",
        "prolifikpoker", "Prolifik",
        "JackH_h1", "milkboy69",
        "Wiggitywhat", "Wiggitywhat",
        "matref17", "matref17",
        "dirtyfivethirty1", "Dirtyfivethirty",
        "shelshel9191", "Sheldonm91",
        "seanienofish", "Dirtfisher666",
        "Kingbum365", "Kingbum",
        "chesmuffin1", "chesmuffin",
        "MartiniTime55", "MTPocket",
        "padrespatty", "padrespatty",
        "nbplildraxx", "Draxxthemsklounst",
        "dawsonlee1128", "carlitothebandito",
        "pokergoddezz23", "pokergoddezz23",
        "bunch918", "Bunchboy",
        "mbadbro1657", "Mbadatpoker",
        "islandbpo", "IslandBPo",
        "BYoungArk", "BYoungArk",
        "heyyoyoa", "ding Dang dong",
        "ninarem", ".REM.",
        "ripley30001", "Ripley3000",
        "cowboylott", "cowboylott",
        "therealpaulgood", "PaulGood",
        "reddmic", "redmic",
        "jaqdya", "jaqdya",
        "mccuttythebarber", "Bucketlee209",
        "coolpenguinz1", "coolpenguinz",
        "binkkdoesstuff", "ThaDropper",
        "Desert3lf", "DeltaD",
        "itsnickking23", "nicking23",
        "dan228x", "dan228x",
        "nhynyx", "TheWitchDoctor",
        "shadow54s", "Shadow54",
        "russhartranft", "russhartranft",
        "voorhees_ron", "Complex1",
        "twichy19", "StackinChips19",        
        "warlover1", "sjlionsfan",
        "AcesFull801", "anarchy_801",
        "iiieyetwitchiii", "Influnntammis",
        "ryand565", "johnyonions",
        "E6ola_", "trntgrg",
        "DustyBallz4Days", "Floridaboy69",
        "rufusftw", "rufusftw",
        "einsinna", "check_raise_101",
        "leerjet24", "Leer24",
        "found_rocks", "Stickit2ya",
        "oderus1", "oderus",
        "facedownacesup", "MrChas",
        "illegit2121", "illegit21",
        "mxtchupnightmxre", "timmy995",
        "doseofdilla", "spurrier4ever",
        "jimmyvpoker", "jimmyvolmer.",
        "Peffjetty", "jef1",
        "tdfitch", "tdfitch",
        "phivedeadphish", "BeefCroghanov",
        "yeahuhhuhshhh", "yeahuhhuhshhh",
        "Blooodz10", "Blooodz10",
        "upconfuseddown", "UpConfusedDown",
        "untouchablevol33", "fcevol33",
        "surffisherman", "SurfFisherman",
        "tomkuluna3131", "tomkuuu",
        "slammer_e", "Slammer",
        "waobonesaw58", "Buzzkill58",
        "brett_cunningham", "Laidbacklefty",
        "binkkdoesstuff", "thadropper",
        "surkali1", "SURKAL",
        "pokergoddezz23", "Pokergoddezz23",
        "wakelinluke", "Barely Tilt",
        "MC0902", "McGone",
        "Mr_Mischief_", "MrMischief",
        "Kelseak91", "kelseaxkay",
        "joeyskater16", "joeyskater16",
        "samm1ch", "grannylover",
        "gsubill", "ALLCAPS",
        "TendoWatt", "TendoW",
        "Synprime", "Synprime",
        "any2cardscanwin", "any2cardscanwin",
        "soulsun713", "soulsun713",
        "olfugger", "Olfugger",
        "CashinOut81", "CashinOut81",
        "Wheydacheese", "Wheydacheese",
        "mov_hdx", "43steelpenny",
        "bokerpux", "Bokerpux",        
        "rannells", "Rannells",
        "lovy2bruno", "Lovy2bruno",
        "snarfpoker", "Rosssock",
        "kyle9333", "kth9333",
        "chapmanrepair", "chapmanimprovement",
        "mooregolf7", "mooregolf7",
        "kingsubsmiley", "Smileysub",
        "armaankapadia", "ArmKap",
        " chepdog12", "joseserr01",
        "jimmyvpoker", "jimmyvolmer",
        "jenwith1n676", "jenwith1N",
        "mefresh77", "mefresh77",
        "holbach", "Tybach",        
        "Rockasilly", "ILOVEYOURWIFE",
        "balldy_", "balldy",
        "Matix365", "Swag7",
        "acez22_", "Acez22",
        "ASUWolves", "ASUWolves",
        "royer49", "Royer45",
        "JohnnyTremz", "jared",
        "debin2025", "BigMilky",
        "bravos_one", "DonkeyExpress",
        "smokindoinksslovebombs", "Iszzy",
        "Flygirlz787", "Flygirlz787",
        "nickbrownstone", "123 randomluck456",
        "ndfightingirish", "ndfightingirish",
        "litvin_one", "LITVIN",        
        "sidetrak312", "Dog lover",
        "GoGoRazzor", "gogo fuentes",
        "grizzlie77", "thelegendflop77",
        "yiggittyyack", "Yackityyack",
        "maxxedout61", "Mr Russo",
        "ArmadilloAL", "ArmadilloAL",
        "aztec_2021", "Aztec 2021",
        "RockemSockemRobot1", "Mike GFish",
        "vitablemoss840", "vitablemoss840",
        "4agreements", "Catfish Billy",
        "chipripperphx", "ChipRipper",
        "beegan_poker", "NastyKeegs",
        "Iguessbro101", "Heidijo0808",
        "TroyRunGood", "OneTimeTroy",
        "JV_play", "JVplay",        
        "dewalist", "ToBlaave",
        "andrewwilson2626", "AndrewWilson",
        "googieman311", "Googieman10",
        "jayman272727", "nuts2727",
        "weakdots", "happyagogo",
        "SnakeThePro", "Letmedonkyoualil",
        "oib777", "Bender777",
        "sds327", "MrBig327",
        "chsthird", "chsthird",
        "thundergunn", "makocanon",
        "flibbedyflab", "elbow.drag",
        "Jeremigo", "jeremigo",
        "gstreet22", "GStreet11",
        "zooch718", "zooch718",
        "CharltonIsGrinding", "Pokerkid86",
        "bigruth34", "bigruth34",
        "dcdoorknob", "dcdoorknob",
        "blazn4zn", "blazn4zn",
        "djnovamiami", "xjackblack305x",
        "ALWAYSONTHETURN", "Sir Ancelot",
        "harris100s", "100max100",
        " frogwine1", "frogwine",
        "zenmetatv", "zenmetatv",
        "MatlockRogers", "MatlockRogers",
        "mikecash813", "Mikecash813",
        "lsheck", "LogieT",
        "shafer13", "ODSoh",
        "operationbluff", "OperationBluff",
        "pm876", "Phil876",
        "eazy2744", "eazye2744",
        "flypaper14", "IC_BrokePPL123",
        "json202202", "IAMFunnyBot",
        "sevzor82", "sevzor82",
        "corebiteme", "CoReBiTeMe",
        "xSqwishyx", "xsqwishy",
        "smittythegrey", "Smitty4523",
        "tamn8r", "Tamn8r",
        "tmeaner", "Tmeaner",
        "booriddley", "Booriddley",
        "flipforit", "Andrew Gornick",
        "joekickass99", "joekickass",
        "AdaptThis", "Plankton",
        "pm876", "Phil876",
        "profastguy", "FastGuy716",
        "scarfino87", "samsomscarface",
        "agronq", "AgronQ",
        "DJSpiceeDeluxe", "VeigarAces",
        "kingfirepoker", "KingFire",
        "ashton1157", "Spikejct777",
        "RealFrankMayo", "notabaddream",
        "tfneuhaus", "MooseAMoose",
        "cjwilliam_", "CJWilliam",
        "UpConfusedDown", "Upconfuseddown",
        "poker_mike", "poker_mike",
        "tex143", "tex143",
        "criplgamer", "Criplgamer",
        "1reallifepoker", "1REALLIFEPOKER",
        "nutflopper412", "Nutflopper412",
        "fatpategption:","Fat nerd",
        "lbhlbh22", "Lhuber22",
        "zanko14578", "Grammer",
        "ace12000", "ace1200",
        "cashgarland21", "squishyAce",
        "CheeseBunnies", "PineapplePizza",
        "lilvape420", "Biggucci",
        "TerrifiCK", "TerrificCK",
        "phivedeadphish", "beefcroghanov,",
        "uncle_chipppy", "JOR_LENE",
        "hbeazy926", "Hbeazy",
        "RocketQueen71", "RocketQueen71",
        "skottydew", "skottydew",
        "debarytree", "DeBaryTree",
        "dogforrealtho", "Poppakot",
        "yoyohoneypig", "Addyyy",
        "eyeheartthebacon", "eyeheartthebacon",
        "nutflopper412", "nutflopper412",
        "nick76777", "Nick21",
        "FatSloppyDrunk", "skru850",
        "bobbyfranztz22", "MuffinThyMuffin21",
        "Zachrulez", "Zachrulez",
        "CodySkiby", "ces1010",        
        "thejoshofalltrades", "GrillSargent",
        "jonnynewks", "arem",
        "matref17", "Matref17",
        "jruss1975", "Jruss",
        "goodluckall", "MeLucky1",
        "wyofire", "WYFire",
        "chiefkeith91", "KManning91",
        "sky1508", "Biocrisis",
        "imbotgbiggestfan", "soxpride101",
        "speed808ix", "GTRchicago808",
        "Sycicvenom", "ChadHunterPoker",
        "amedy0", "amedy",
        "LadderingUp", "LadderingUp",
        "discin4ever", "Pokergoddezz",
        "retsamkert", "trekmaster",
        "wyofire", "WYFire",
        "clepto_1", "clepto1",
        "misclickgenuiss", "Misclickgnuis",
        "balvey27", "GentleBen",        
        "bigt_813", "sextonhardcastle",
        "xavobtv", "XAVOBTV",
        "haywired69", "Da Haywire",
        "oSevo7", "oSevo",
        "floatmyboat ", "fLoAtMyboat",
        "dej66", "Dej66",
        "thethwarter", "TheThwarter",
        "frenzyblade420", "FB420",
        "momhasnutz", "MomHasNutz",
        "tripuponem", "tripuponem",
        "betjam", "BetJam",
        "angel232chamo", "moneymaker31",
        "goobergeorge", "omg_dueces",
        "rkaccount1", "SkimpySally",
        "koalaislands", "ISukAtParkoiur",
        "The_Eraser", "Eraizer",        
        "andycsoul", "no lube",
        "Walterg1334", "physicist34",
        "rontatersalad", "RonTaterSalad",
        "mooiemom", "MooieMom",
        "jhaas57", "SamRiver",
        "chipseeker", "Chipseeker",
        "billsbestone", "billsbestone",
        "psilocybin_lover", "Tantraking",
        "revalience", "valentheon",
        "nickoltman", "thisguy88",
        "gutterball5784", "Gutterball5784",
        "dvs9120", "dvs9120",
        "jaqkattaqk", "DocEnrique",
        "misclickgnuiss", "misclickgnuis",
        "tripuponem", "tripuponem",
        "chitpusher", "chitpusher",
        "threeeeeone", "threeeee",
        "timmyjoe420", "timmyjoe420",
        "VGNPoker", "VGNAnarchY",
        "foreverfatfire", "Fatfire",
        "xmountie4144", "Lancer6120",
        "crooks_n_villains", "SirAncelot",
        "rballgrinder", "jbhopko",
        "shaun31723", "Fidler1",
        "merchantprocessingwps", "fisherman95",
        "TPC_SwayZe", "SwayZe Baby",        
        "blome421", "BloMe421",
        "kryptohornet", "AllanMcAllin",
        "DAD_LIFE06", "ffmowens",
        "2battle_", "Vmon",
        "pokerfan2017", "pokerfan312019",
        "mavericks432", "RicketyCricket",
        "DAD_LIFE06", "ffmowens",
        "psykosaltine", "psykosaltine",
        "bigdog999999999", "bigdog99999",
        "shawndabomb420", "shawndabomb420",
        "shayshaycal", "shayshaycal",
        "jasonofthisrealm", "jwienz",
        "Ampul", "Ampul",
        "mstrssofposeidon", "mstrssofposeidon",
        "lsutigerfan7", "Lsutigerfan 225",
        "ROEye", "ROEye",
        "fendor9", "fendor91",
        "pilepunter", "Oceas11Pro",
        "xfsstryker", "Taylor 31",
        "aCOYne725", "acoyne725",
        "losswages", "Blindman56",
        "slipperywhendrybtw", "ThereAreLevels",
        "blome421", "blome421",
        "vmongpoker", "Vmon",
        "cajunkoolaid", "cajunmama88",
        "BillsBestOne", "BillsBestOne",
        "blackbeltpoker", "Cantstandyabitsjr",
        "jtmoney559", "Spice 1",
        "sillyipper", "Tiltological",
        "joeyspoker", "joeyspoker",
        "chiptripler", "Chip Tripler",
        "1unoplays", "QuueenD",        
        "WombRaider14", "WinFlipandNipSlip",
        "gitmapathy", "Khal Boa",
        "shipmonee2me", "shipmoneee2me",
        "mbadbro1657", "Mbadatpoker",
        "nickoltman", "ThisGuy88",
        "arie0444", "SalsaVerde",
        "lurker514", "NOBI_B",
        "piddy1981", "Piddy1981",
        "Bobbybuchey", "Georgeb94legacy",
        "MTGsadness", "averyfinedonkey",
        "elfinmonies", "elfinmonies",
        "fishcancatch", "Playanother1",
        "BabeMcPoops", "BabeMcPoops",
        "cosin_avi33", "potlimit333",
        "thnxforplaying_onglobal", "thnxforplaying",
        "chevanater", "chevanater",
        "pilepunter", "Oceans11Pro",
        "dortego22", "Dortego22",
        "immfree2017", "immfree2017",
        "ogchapo93", "Ogchapo93",
        "bryan24x", "bryan24g",
        "r0clnante", "Rochinate2112",
        "coreyreid25", "Acerun",
        "cousin_avi33", "potlimit333",
        "kaj_ellis", "DraymondGreen",
        "vanllips", "vanllips",
        "The_Lieutenant_", "BringMeDat420",
        "qilip", "metamin",
        "Humboldtratjj", "HumboltRat",
        "jlieb38", "JLieb38",
        "ldizzle14", "LDIZZLE14",
        "Thepartsmangler", "PARTSMANGLER",        
        "grindtimebabydougv", "Grindtimebaby",
        "deezego", "benzboi55",
        "kingweeble1986", "KingWeeble",
        "debin2025", "bigmilky",
        "lolbondo", "RealBondo",
        "dreadxb", "EarlManigualt",
        "tonyontilt", "ToNyOnTiLt",
        "cupcake25_cupcake25", "cupcake25",
        "wallnutz_", "wallnutz",
        "dazuband", "fireofGod",
        "walden5", "mushymushroom",
        "poppieskid", "Poppieskid",        
        "melrannells", "BBall mom",
        "flanmarino", "P04206969",
        "flanmarino", "P04206969",
        "upfed13", "upfed13",
        "Dmtechno", "dmmagic91",
        "kharagne", "Xharagne",
        "kep64", "KEP",
        "ThisCuteAsianGuy", "ThisCuteAsianGuy",
        "83_bama", "SilentB83",
        "john_sears", "mortarman 23",
        "christie5837", "christie5837",
        "carddg2424", "Uncle Trump",
        "enyguitar", "ENYguitar",
        "smokedgrey42", "SmokenoddsN20",
        "socmom", "socmom",
        "jbarnes0731", "Barnsey0731",
        "badgerbluff", "BadgerBluff",
        "ccitysteve", "Ccitysteve",
        "KOREA10", "kr10",
        "FTGgoCATS", "FTGgoCATS",
        "waterfireclock", "H0twatercl0ck",
        "xphilo_bedox", "kungfoocrypto",
        "wiseaaron35", "Aa-ron35",
        "tbonesbeach", "Dontwatchtooclose",
        "donjuanmateo", "donjuanmateo83",
        "hebrewhammer404", "HebrewHammer",
        "cousin_avi33", "cuzzin_avi",
        "waterfireclock", "H0twatercl0ck",
        "nkdandy", "AWolf420",
        "WigSplitta812", "WigSplitta812",
        "MC0902", "McGone",
        "JTWeSportRacing", "Maverick13",
        "DaZeWY", "DAHDAZE",
        "perpetualdreem", "MysterD",
        "9dimes", "todaysfreak",
        "tripuponem", "tripuponem",
        "funky_dago_99", "person1000000",
        "chadversus", "dallasthousand",
        "enyguitar", "ENYguitar"        
    ]
}

